{
	"learningoutcomes":{
		"AddKnowledge":             "Add",
		"LearningOutcomeText":      "Text",
		"LearningOutcomeTextEN":    "Text in English",
		"LearningOutcomeOper":      "Operations",
		"NoLearningOutcomes":       "No learning outcomes registered",
		"Edit":                     "Edit",
		"Knowledge":                "Knowledge",
		"Skills":                   "Skills",
		"Competence":               "Competence",

		"Validation": {
			"NotBothEmpty":         "Text in either language must be specified"
		}
	}
}