{
	"Issues": {
		"Common": {
			"description": "Lýsing",
			"type": "Tegund beiðni"
		},
		"Actions": {
			"submit": "Senda beiðni",
			"create": "Stofna beiðni",
			"cancel": "Hætta",
			"changeProfilePicture": "Breyting á prófílmynd",
			"changeMajor": "Skipta um námsbraut",
			"changeGroup": "Breyta um hóp",
			"leaveCourse": "Skrá úr námskeiði"
		}
	}
}
